{
  "name": "DeviceWifi",
  "options": {
    "idInjection": false,
    "mysql": {
      "schema": "healthcare_db",
      "table": "device_wifi"
    },
    "relations": {}
  },
  "properties": {
    "devId": {
      "type": "Number",
      "required": true,
      "length": null,
      "precision": 10,
      "scale": 0,
      "id": 1,
      "mysql": {
        "columnName": "dev_id",
        "dataType": "int",
        "dataLength": null,
        "dataPrecision": 10,
        "dataScale": 0,
        "nullable": "N"
      }
    },
    "id": {
      "type": "Number",
      "required": true,
      "length": null,
      "precision": 10,
      "scale": 0,
      "id": 2,
      "mysql": {
        "columnName": "id",
        "dataType": "int",
        "dataLength": null,
        "dataPrecision": 10,
        "dataScale": 0,
        "nullable": "N"
      }
    },
    "passphrase": {
      "type": "String",
      "required": true,
      "length": 100,
      "precision": null,
      "scale": null,
      "mysql": {
        "columnName": "passphrase",
        "dataType": "varchar",
        "dataLength": 100,
        "dataPrecision": null,
        "dataScale": null,
        "nullable": "N"
      }
    },
    "ssid": {
      "type": "String",
      "required": true,
      "length": 32,
      "precision": null,
      "scale": null,
      "mysql": {
        "columnName": "ssid",
        "dataType": "char",
        "dataLength": 32,
        "dataPrecision": null,
        "dataScale": null,
        "nullable": "N"
      }
    },
    "type": {
      "type": "String",
      "required": true,
      "length": 15,
      "precision": null,
      "scale": null,
      "mysql": {
        "columnName": "type",
        "dataType": "enum",
        "dataLength": 15,
        "dataPrecision": null,
        "dataScale": null,
        "nullable": "N"
      }
    },
    "dhcp": {
      "type": "Binary",
      "required": true,
      "length": null,
      "precision": 1,
      "scale": null,
      "mysql": {
        "columnName": "dhcp",
        "dataType": "bit",
        "dataLength": null,
        "dataPrecision": 1,
        "dataScale": null,
        "nullable": "N"
      }
    },
    "staticip": {
      "type": "Number",
      "required": true,
      "length": null,
      "precision": 10,
      "scale": 0,
      "mysql": {
        "columnName": "staticip",
        "dataType": "int",
        "dataLength": null,
        "dataPrecision": 10,
        "dataScale": 0,
        "nullable": "N"
      }
    },
    "proxy": {
      "type": "Binary",
      "required": true,
      "length": null,
      "precision": 1,
      "scale": null,
      "mysql": {
        "columnName": "proxy",
        "dataType": "bit",
        "dataLength": null,
        "dataPrecision": 1,
        "dataScale": null,
        "nullable": "N"
      }
    },
    "proxyPort": {
      "type": "Number",
      "required": false,
      "length": null,
      "precision": 10,
      "scale": 0,
      "mysql": {
        "columnName": "proxy_port",
        "dataType": "int",
        "dataLength": null,
        "dataPrecision": 10,
        "dataScale": 0,
        "nullable": "Y"
      }
    },
    "proxyHost": {
      "type": "String",
      "required": false,
      "length": 253,
      "precision": null,
      "scale": null,
      "mysql": {
        "columnName": "proxy_host",
        "dataType": "varchar",
        "dataLength": 253,
        "dataPrecision": null,
        "dataScale": null,
        "nullable": "Y"
      }
    },
    "lastcloudsync": {
      "type": "Date",
      "required": true,
      "length": null,
      "precision": null,
      "scale": null,
      "mysql": {
        "columnName": "lastcloudsync",
        "dataType": "datetime",
        "dataLength": null,
        "dataPrecision": null,
        "dataScale": null,
        "nullable": "N"
      }
    },
    "idCloud": {
      "type": "Number",
      "required": false,
      "length": null,
      "precision": 10,
      "scale": 0,
      "mysql": {
        "columnName": "id_cloud",
        "dataType": "int",
        "dataLength": null,
        "dataPrecision": 10,
        "dataScale": 0,
        "nullable": "Y"
      }
    }
  }
}