{
  "name": "People",
  "options": {
    "idInjection": false,
    "mysql": {
      "schema": "users_db",
      "table": "people"
    },
    "relations": {}
  },
  "properties": {
    "accountId": {
      "type": "Number",
      "required": true,
      "length": null,
      "precision": 10,
      "scale": 0,
      "id": 1,
      "mysql": {
        "columnName": "account_id",
        "dataType": "int",
        "dataLength": null,
        "dataPrecision": 10,
        "dataScale": 0,
        "nullable": "N"
      }
    },
    "email": {
      "type": "String",
      "required": true,
      "length": 255,
      "precision": null,
      "scale": null,
      "mysql": {
        "columnName": "email",
        "dataType": "varchar",
        "dataLength": 255,
        "dataPrecision": null,
        "dataScale": null,
        "nullable": "N"
      }
    },
    "firstName": {
      "type": "String",
      "required": false,
      "length": 255,
      "precision": null,
      "scale": null,
      "mysql": {
        "columnName": "first_name",
        "dataType": "varchar",
        "dataLength": 255,
        "dataPrecision": null,
        "dataScale": null,
        "nullable": "Y"
      }
    },
    "lastName": {
      "type": "String",
      "required": false,
      "length": 255,
      "precision": null,
      "scale": null,
      "mysql": {
        "columnName": "last_name",
        "dataType": "varchar",
        "dataLength": 255,
        "dataPrecision": null,
        "dataScale": null,
        "nullable": "Y"
      }
    },
    "password": {
      "type": "String",
      "required": false,
      "length": 60,
      "precision": null,
      "scale": null,
      "mysql": {
        "columnName": "password",
        "dataType": "char",
        "dataLength": 60,
        "dataPrecision": null,
        "dataScale": null,
        "nullable": "Y"
      }
    },
    "dob": {
      "type": "String",
      "required": false,
      "length": 60,
      "precision": null,
      "scale": null,
      "mysql": {
        "columnName": "dob",
        "dataType": "varchar",
        "dataLength": 60,
        "dataPrecision": null,
        "dataScale": null,
        "nullable": "Y"
      }
    },
    "clinicalTrials": {
      "type": "Number",
      "required": false,
      "length": null,
      "precision": 3,
      "scale": 0,
      "mysql": {
        "columnName": "clinical_trials",
        "dataType": "tinyint",
        "dataLength": null,
        "dataPrecision": 3,
        "dataScale": 0,
        "nullable": "Y"
      }
    },
    "productsServices": {
      "type": "Number",
      "required": false,
      "length": null,
      "precision": 3,
      "scale": 0,
      "mysql": {
        "columnName": "products_services",
        "dataType": "tinyint",
        "dataLength": null,
        "dataPrecision": 3,
        "dataScale": 0,
        "nullable": "Y"
      }
    },
    "invocationFirst": {
      "type": "Number",
      "required": true,
      "length": null,
      "precision": 3,
      "scale": 0,
      "mysql": {
        "columnName": "invocation_first",
        "dataType": "tinyint",
        "dataLength": null,
        "dataPrecision": 3,
        "dataScale": 0,
        "nullable": "N"
      }
    },
    "timezone": {
      "type": "String",
      "required": true,
      "length": 5,
      "precision": null,
      "scale": null,
      "mysql": {
        "columnName": "timezone",
        "dataType": "char",
        "dataLength": 5,
        "dataPrecision": null,
        "dataScale": null,
        "nullable": "N"
      }
    },
    "alertsOn": {
      "type": "Binary",
      "required": true,
      "length": null,
      "precision": 1,
      "scale": null,
      "mysql": {
        "columnName": "alerts_on",
        "dataType": "bit",
        "dataLength": null,
        "dataPrecision": 1,
        "dataScale": null,
        "nullable": "N"
      }
    },
    "smartphone": {
      "type": "String",
      "required": false,
      "length": 12,
      "precision": null,
      "scale": null,
      "mysql": {
        "columnName": "smartphone",
        "dataType": "varchar",
        "dataLength": 12,
        "dataPrecision": null,
        "dataScale": null,
        "nullable": "Y"
      }
    },
    "voiceonlyphone": {
      "type": "String",
      "required": false,
      "length": 12,
      "precision": null,
      "scale": null,
      "mysql": {
        "columnName": "voiceonlyphone",
        "dataType": "varchar",
        "dataLength": 12,
        "dataPrecision": null,
        "dataScale": null,
        "nullable": "Y"
      }
    },
    "lastEdit": {
      "type": "Date",
      "required": true,
      "length": null,
      "precision": null,
      "scale": null,
      "mysql": {
        "columnName": "last_edit",
        "dataType": "timestamp",
        "dataLength": null,
        "dataPrecision": null,
        "dataScale": null,
        "nullable": "N"
      }
    },
    "lastCloudsync": {
      "type": "Date",
      "required": true,
      "length": null,
      "precision": null,
      "scale": null,
      "mysql": {
        "columnName": "last_cloudsync",
        "dataType": "datetime",
        "dataLength": null,
        "dataPrecision": null,
        "dataScale": null,
        "nullable": "N"
      }
    },
    "idCloud": {
      "type": "Number",
      "required": false,
      "length": null,
      "precision": 10,
      "scale": 0,
      "mysql": {
        "columnName": "id_cloud",
        "dataType": "int",
        "dataLength": null,
        "dataPrecision": 10,
        "dataScale": 0,
        "nullable": "Y"
      }
    }
  }
}