{
  "_meta": {
    "sources": [
      "loopback/common/models",
      "loopback/server/models",
      "../common/models",
      "./models"
    ],
    "mixins": [
      "loopback/common/mixins",
      "loopback/server/mixins",
      "../common/mixins",
      "./mixins"
    ]
  },
  "User": {
    "dataSource": "memdb"
  },
  "AccessToken": {
    "dataSource": "memdb",
    "public": false
  },
  "ACL": {
    "dataSource": "memdb",
    "public": false
  },
  "RoleMapping": {
    "dataSource": "memdb",
    "public": false,
    "options": {
      "strictObjectIDCoercion": true
    }
  },
  "Role": {
    "dataSource": "memdb",
    "public": false
  },
  "camDetection": {
    "dataSource": "healthcare_db",
    "public": true
  },
  "deviceInfo": {
    "dataSource": "healthcare_db",
    "public": true
  },
  "deviceWifi": {
    "dataSource": "healthcare_db",
    "public": true
  },
  "incidents": {
    "dataSource": "healthcare_db",
    "public": true
  },
  "mobileConnection": {
    "dataSource": "healthcare_db",
    "public": true
  },
  "o2vibeConnection": {
    "dataSource": "healthcare_db",
    "public": true
  },
  "xethruDetection": {
    "dataSource": "healthcare_db",
    "public": true
  },
  "xethruSleepDetection": {
    "dataSource": "healthcare_db",
    "public": true
  },
  "people": {
    "dataSource": "users_db",
    "public": true
  },
  "peopleRelations": {
    "dataSource": "users_db",
    "public": true
  },
  "seizures": {
    "dataSource": "healthcare_db",
    "public": true
  }
}